ID,Description,numSlots,shortName,Lat,Lon,isManual,webDescription,photo,geometry,start_quantile,stop_quantile
1,Moravia,15,MRV,6.276585,-75.564804,1,Frente a la entrada principal del Centro de Desarrollo Cultural de Moravia,https://encicla.metropol.gov.co/imgstations/moravia.jpg,POINT (-75.56480407714844 6.276585102081299),high,high
2,Universidad,33,UNI,6.269267,-75.5653,1,Bajo el viaducto de la estación Universidad del Metro,https://encicla.metropol.gov.co/imgstations/universidad.jpg,POINT (-75.56529998779297 6.269267082214355),high,high
3,Ruta N,40,RTN,6.265182,-75.566345,0,Frente a la fachada principal de Ruta N sobre la ciclorruta de la Avenida Carabobo.,https://encicla.metropol.gov.co/imgstations/ruta_n.jpg,POINT (-75.56634521484375 6.265182018280029),high,high
4,Punto Cero,10,PT0,6.265161,-75.575066,1,Intercambio vial de Punto Cero al lado de la estación de policía,https://encicla.metropol.gov.co/imgstations/punto_cero.jpg,POINT (-75.57506561279297 6.265161037445068),high,high
5,Universidad Nacional,33,,6.259663,-75.57881,1,Portería de la Iguaná con Carrera 65 de la Universidad Nacional,https://encicla.metropol.gov.co/imgstations/universidad_nacional.jpg,POINT (-75.57881164550781 6.259663105010986),high,high
6,Colombia,12,COL,6.25649,-75.581024,1,Esquina occidental de la Carrera 65 con Calle 51,https://encicla.metropol.gov.co/imgstations/colombia.jpg,POINT (-75.58102416992188 6.256490230560303),high,high
7,Suramericana,20,SUR,6.253003,-75.58269,1,Bajo el viaducto de la estación Suramericana del Metro,https://encicla.metropol.gov.co/imgstations/suramericana.jpg,POINT (-75.58268737792969 6.253003120422363),high,high
8,Estadio,20,EST,6.253349,-75.58769,1,Bajo el viaducto de la estación Estadio del Metro en el parqueadero de bicicletas,https://encicla.metropol.gov.co/imgstations/estadio.jpg,POINT (-75.58769226074219 6.253348827362061),high,high
9,San Juan,14,SJU,6.249014,-75.588585,0,Costado norte de la Calle 44 San Juan con Carrera 70,https://encicla.metropol.gov.co/imgstations/san_juan.jpg,POINT (-75.58858489990234 6.249013900756836),high,high
10,UPB,12,UPB,6.244998,-75.58919,1,Sobre la ciclorruta de la Carrera 70 frente a la entrada de la UPB,https://encicla.metropol.gov.co/imgstations/upb.jpg,POINT (-75.58918762207031 6.244997978210449),high,high
11,Los Colores,22,COL,6.260004,-75.58514,0,Al frente de la entrada principal de la Institución Universitaria Salazar y Herrera,https://encicla.metropol.gov.co/imgstations/los_colores.jpg,POINT (-75.58513641357422 6.260004043579102),high,high
12,Floresta,20,FLO,6.258628,-75.59737,1,Bajo el viaducto de la estación Floresta del Metro en el parqueadero de bicicletas,https://encicla.metropol.gov.co/imgstations/los_colores.jpg,POINT (-75.59736633300781 6.258627891540527),high,high
13,Robledo,21,ROB,6.271922,-75.591324,1,Diagonal al Colegio Mayor de Antioquia,,POINT (-75.59132385253906 6.27192211151123),high,high
19,Plaza de La Libertad,38,ALP,6.2434626,-75.57465,0,Costado sur de la Plaza de la Libertad al lado de La Alpujarra,https://encicla.metropol.gov.co/imgstations/plaza_de_la_libertad.jpg,POINT (-75.57465362548828 6.243462562561035),high,high
20,Parque de Los Mangos,18,MNG,6.245383,-75.58401,0,"Esquina de la Av. Bolivariana con Carrera 65,  costado norte parque de Los Mangos",https://encicla.metropol.gov.co/imgstations/parque_de_los_mangos.jpg,POINT (-75.58400726318359 6.245382785797119),high,high
21,La 33,21,33,6.239151,-75.58308,1,Costado sur bajo el puente de la Carrera 65 con sobre la Calle 33,https://encicla.metropol.gov.co/imgstations/la_33.jpg,POINT (-75.58307647705078 6.239151000976562),high,high
22,Primer Parque de Laureles,32,LAU,6.24597,-75.59381,0,"Costado norte del 1er Parque de Laureles,  al borde de la ciclorruta",https://encicla.metropol.gov.co/imgstations/primer_parque_de_laureles.jpg,POINT (-75.59381103515625 6.245969772338867),high,high
23,Rosales,9,ROS,6.231326,-75.59154,1,"Esquina de la Cll. 30 con Cra. 70, diagonal a la estación Rosales de Metroplús",https://encicla.metropol.gov.co/imgstations/rosales.jpg,POINT (-75.59153747558594 6.231326103210449),high,high
24,Maria Luisa Calle,27,MLC,6.21553,-75.593094,1,Entrada principal de la Unidad Deportiva Maria Luisa Calle ,https://encicla.metropol.gov.co/imgstations/maria_luisa_calle.jpg,POINT (-75.59309387207031 6.215529918670654),high,high
27,Sabaneta Parque,1,SPQ,6.151631,-75.61562,1,Costado sur Parque de sabaneta,,POINT (-75.61562347412109 6.151630878448486),medium,medium
28,Sabaneta Metro,1,SMT,6.156829,-75.61667,1,Ingreso oriental estación Sabaneta del Metro,,POINT (-75.61666870117188 6.156828880310059),medium,medium
32,San Pedro y San Pablo,40,PME,6.258327,-75.59424,0,"Esquina de la calle 48 con carrera 77A, barrio Estadio.",https://encicla.metropol.gov.co/imgstations/san_pedro_y_san_pablo.jpg,POINT (-75.59423828125 6.258327007293701),medium,medium
33,Pies Descalzos I,24,DES,6.245512,-75.57701,0,En el túnel verde EPM al costado norte de Pies Descalzos,https://encicla.metropol.gov.co/imgstations/pies_descalzos.jpg,POINT (-75.57701110839844 6.245512008666992),medium,high
34,Área Metropolitana,21,AMV,6.242481,-75.573875,1,Al frente del edificio del Área Metropolitana sobre el costado norte de la Calle Los Huesos,https://encicla.metropol.gov.co/imgstations/area_metropolitana.jpg,POINT (-75.57387542724609 6.242481231689453),high,high
35,Plaza Mayor,20,PLZ,6.242628,-75.57564,0,"Costado sur de Plaza Mayor sobre la Avenida Ferrocarril,  salida puente peatonal de Metroplús",https://encicla.metropol.gov.co/imgstations/plaza_mayor.jpg,POINT (-75.57563781738281 6.24262809753418),medium,medium
36,Parque de Las Luces I,28,CIS,6.246078,-75.57156,0,Plaza de Cisneros frente a los edificios Carré y Vásquez,https://encicla.metropol.gov.co/imgstations/parque_de_las_luces_I.jpg,POINT (-75.57156372070312 6.246078014373779),high,high
37,Pies Descalzos II,30,EPM,6.245322,-75.57686,0,En el túnel verde EPM al costado norte de Pies Descalzos,https://encicla.metropol.gov.co/imgstations/pies_descalzos_II.jpg,POINT (-75.57685852050781 6.245322227478027),medium,medium
38,Segundo Parque de Laureles,30,PLA,6.245062,-75.5973,1,Costado oriental del 2do Parque de Laureles con Av. Jardín,https://encicla.metropol.gov.co/imgstations/segundo_parque_de_laureles.jpg,POINT (-75.59729766845703 6.245061874389648),high,medium
39,San Joaquín,30,SJ,6.243337,-75.58609,0,Esquina de la Av. Bolivariana con Circular 2da en el costado sur del parque de Los Mangos,https://encicla.metropol.gov.co/imgstations/san_joaquin.jpg,POINT (-75.58609008789062 6.243337154388428),high,high
40,Orquídeas,40,PCB,6.262605,-75.58895,0,Esquina del supermercado Consumo y la unidad Camino de Los Colores,https://www.encicla.gov.co/wp-content/uploads/orquideas.jpg,POINT (-75.58895111083984 6.2626051902771),high,high
41,Parque de Las Luces II,28,LUC,6.245594,-75.57176,0,Plaza de Cisneros frente a los edificios Carré y Vásquez,https://encicla.metropol.gov.co/imgstations/parque_de_las_luces_II.jpg,POINT (-75.57176208496094 6.245594024658203),high,high
42,Santa Teresita,32,STL,6.242021,-75.59675,0,Portada de la parroquia de Santa Teresita del Niño Jesús sobre la Carrera 76,https://encicla.metropol.gov.co/imgstations/santa_teresita.jpg,POINT (-75.59674835205078 6.242021083831787),high,high
43,Cisneros - Unaula,33,LOM,6.250576,-75.574814,1,Frente a la estación Cisneros del Metroplús,https://encicla.metropol.gov.co/imgstations/cisneros_unaula.jpg,POINT (-75.57481384277344 6.250576019287109),medium,medium
44,La 65,32,J65,6.248949,-75.58346,0,Esquina de la Calle 44 San Juan con Carrera 65 en Homecenter,https://www.encicla.gov.co/wp-content/uploads/la65.jpg,POINT (-75.58345794677734 6.24894905090332),high,high
45,Unidad Deportiva de Belén,20,DEP,6.232526,-75.58756,0,Portería de la Circular 1era con Av. Nutibara de la UPB al frente del periódico El Tiempo,https://encicla.metropol.gov.co/imgstations/unidad_deportiva_belen.jpg,POINT (-75.58756256103516 6.232525825500488),high,high
46,María Mulata,24,FNU,6.250549,-75.59472,0,"Parque monumento a La Virgen en la Cll 44A con Cra 75,  vía paralela a la Cll San Juan",https://encicla.metropol.gov.co/imgstations/maria_mulata.jpg,POINT (-75.59471893310547 6.250548839569092),high,high
47,Circular Primera,24,CRP,6.241859,-75.59193,0,Portería de la Circular 1era con Av. Nuribara de la UPB al frente del periódico El Tiempo,https://encicla.metropol.gov.co/imgstations/circular_primera.jpg,POINT (-75.59192657470703 6.241858959197998),high,high
48,Batallón,14,P4B,6.262189,-75.59504,0,"Vía paralela a la Calle 50 Av. Colombia,  al costado sur de la zona verde",https://encicla.metropol.gov.co/imgstations/batallon.jpg,POINT (-75.59503936767578 6.262188911437988),high,high
49,Pedro Nel Gómez,26,NTB,6.246906,-75.59663,0,Av. Nutibara en las esquina de las instalaciones de UNE,https://encicla.metropol.gov.co/imgstations/pedro_nel_gomez.jpg,POINT (-75.59662628173828 6.24690580368042),high,high
51,Cacique Candela,20,C73,6.243788,-75.595406,0,Esquina edificio Torre Molinos sobre la Cirq. 73b entre la Av. Nutibara y la Transv. 39,https://www.encicla.gov.co/wp-content/uploads/cacique-candela.jpg,POINT (-75.59540557861328 6.24378776550293),medium,medium
53,Florida Nueva,26,ATA,6.252601,-75.59033,0,Vía paralela a la Calle 47D Av. Antonio Roldán y el Parque Florida Nueva,https://encicla.metropol.gov.co/imgstations/florida_nueva.jpg,POINT (-75.59033203125 6.252601146697998),medium,high
54,Primavera,40,RTN,6.2253,-75.57245,1,Barrio Colombia sobre la Cll. 24 con Cra. 43F,https://encicla.metropol.gov.co/imgstations/primavera.jpg,POINT (-75.57244873046875 6.225299835205078),medium,medium
55,SIU-UdeA,20,SIU,6.260481,-75.56718,0,Costado oriental de la SIU sobre la ciclorruta de Carabobo,https://encicla.metropol.gov.co/imgstations/SIU_UdeA.jpg,POINT (-75.56717681884766 6.260480880737305),high,high
56,Industriales Metro,38,PCL,6.23055,-75.57437,0,Plazoleta del Centro Comercial Punto Clave sobre la ciclorruta de la Av. Las Vegas,https://encicla.metropol.gov.co/imgstations/industriales_metro.jpg,POINT (-75.57437133789062 6.230549812316895),high,high
57,Nutibara,36,NTB,6.231811,-75.582954,0,Costado Occidental de la estación Nutibara de Metroplús sobre la Carrera 65 con Calle 30,https://encicla.metropol.gov.co/imgstations/nutibara.jpg,POINT (-75.58295440673828 6.231811046600342),high,high
58,Parque San Joaquín,30,PSJ,6.245576,-75.5868,0,Parque de San Joaquín con la Circular 3,https://encicla.metropol.gov.co/imgstations/parque_de_san_joaquin.jpg,POINT (-75.58679962158203 6.245575904846191),medium,high
59,Río Aburrá,26,BCO,6.22851,-75.57466,0,Al frente del edificio de Bancolombia sobre la ciclorruta de la Av. Las Vegas ,https://encicla.metropol.gov.co/imgstations/rio_aburra.jpg,POINT (-75.57466125488281 6.228509902954102),medium,medium
60,Villa Carlota,26,VCA,6.220012,-75.57543,0,Esquina sur del complejo residencial Ciudad del Rio y Holasa sobre la ciclorruta de la Av. Las Vegas,https://encicla.metropol.gov.co/imgstations/villa_carlota.jpg,POINT (-75.57543182373047 6.220012187957764),high,high
61,Ciudad del Río,18,NAR,6.222324,-75.57296,0,Parque lineal de Ciudad del Rio sobre la Carrera 43G,,POINT (-75.57295989990234 6.222323894500732),medium,medium
62,Otra Banda,40,CER,6.255589,-75.57926,0,Parque Carlos E. Restrepo en el costado Norte de la Calle 50 Av. Colombia,https://encicla.metropol.gov.co/imgstations/otrabanda.jpg,POINT (-75.57926177978516 6.255589008331299),high,high
63,Palacé,34,CDR,6.236338,-75.57329,0,Plazuela al frente de la Iglesia del Perpetuo Socorro,https://encicla.metropol.gov.co/imgstations/palace.jpg,POINT (-75.57328796386719 6.236338138580322),high,high
64,MAMM,38,MUM,6.22378,-75.57497,0,Ciudad del Rio en la Plaza Talleres Robledo sobre la ciclorruta de la Av. Las Vegas,https://encicla.metropol.gov.co/imgstations/mamm.jpg,POINT (-75.57496643066406 6.223780155181885),high,high
65,Juan Pablo II,26,JP2,6.222392,-75.59223,0,Costado norte de la plazoleta del Aeroparque Juan Pablo II sobre la Av. 70,https://encicla.metropol.gov.co/imgstations/juan_pablo_II.jpg,POINT (-75.59223175048828 6.222392082214355),medium,high
66,Industriales Metroplús,20,IMP,6.231406,-75.577225,1,Costado occidental de la Estación Industriales de Metroplús,https://encicla.metropol.gov.co/imgstations/industriales_metroplus.jpg,POINT (-75.57722473144531 6.231406211853027),high,high
67,Museo de Antioquia,20,MAQ,6.251826,-75.568794,1,Plazoleta de Botero frente a la entrada principal del Museo de Antioquia,https://encicla.metropol.gov.co/imgstations/museo_de_antioquia.jpg,POINT (-75.56879425048828 6.25182580947876),high,high
70,Campus Nacional,33,NAC,6.260703,-75.57858,1,Portería de la Iguaná con Carrera 65 de la Universidad Nacional,,POINT (-75.57858276367188 6.260703086853027),high,high
89,Málaga,20,MLG,6.24655,-75.569954,0,Bajo la estación San Antonio,https://encicla.metropol.gov.co/imgstations/malaga.jpg,POINT (-75.56995391845703 6.2465500831604),high,high
90,Calle 51 Los Colores,40,C51,6.2633796,-75.59509,0,Media cuadra debajo de INVIAS ,https://encicla.metropol.gov.co/imgstations/calle_51_los_colores.jpg,POINT (-75.5950927734375 6.263379573822021),medium,medium
91,Telemedellín,40,TM,6.22006,-75.5714,0,Ingreso Canal parque Telemedellín,https://encicla.metropol.gov.co/imgstations/telemedellin.jpg,POINT (-75.57140350341797 6.220059871673584),medium,medium
92,Parques del río,48,PR,6.245546,-75.58054,0,Costado noroccidental de Parques del río ,https://encicla.metropol.gov.co/imgstations/parques_del_rio.jpg,POINT (-75.58054351806641 6.245545864105225),medium,medium
93,Salazar y Herrera,40,SL,6.260431,-75.58617,0,Posterior a la I.U. Salazar y Herrera,https://encicla.metropol.gov.co/imgstations/salazar_y_herrera.jpg,POINT (-75.58616638183594 6.260430812835693),medium,medium
94,Calle 19A Villa Carlota,40,19A,6.222081,-75.57111,0,Diagonal al ingreso Grupo Orbis - Pintuco,https://encicla.metropol.gov.co/imgstations/calle_19_a_villa_carlota.jpg,POINT (-75.57111358642578 6.222081184387207),medium,medium
95,San Antonio,20,SA,6.248411,-75.56905,0,Bajo la estación San Antonio del Metro,https://encicla.metropol.gov.co/imgstations/san_antonio.jpg,POINT (-75.56905364990234 6.248411178588867),medium,medium
96,Parque Berrio,20,PB,6.250043,-75.56841,0,Bajo la estación Parque Berrío del Metro,https://encicla.metropol.gov.co/imgstations/parque_berrio.jpg,POINT (-75.56841278076172 6.250042915344238),medium,medium
97,Palacio de la Cultura,20,PC,6.250667,-75.56807,0,"Paseo Bolívar, diagonal al palacio de la Cultura",https://encicla.metropol.gov.co/imgstations/palacio_de_la_cultura.jpg,POINT (-75.56806945800781 6.250667095184326),medium,high
98,Picacha la 76,36,PI,6.2352505,-75.59647,0,Costado occidental del puente. La Picacha.,https://encicla.metropol.gov.co/imgstations/picacha_la_76.jpg,POINT (-75.59647369384766 6.235250473022461),medium,medium
99,Unicentro,40,UC,6.2398896,-75.58666,0,Frente al Banco de Occidente,https://encicla.metropol.gov.co/imgstations/unicentro.jpg  ,POINT (-75.58666229248047 6.239889621734619),medium,medium
100,Bulerias,40,BU,6.238578,-75.590416,0,Bajo el puente de la Av. Bolivariana,https://encicla.metropol.gov.co/imgstations/bulerias.jpg,POINT (-75.59041595458984 6.238577842712402),medium,medium
101,Cafetero,44,CF,6.2385836,-75.586174,0,Diagonal al ingreso del éxito súper,https://encicla.metropol.gov.co/imgstations/cafetero.jpg,POINT (-75.58617401123047 6.238583564758301),medium,medium
102,Distrito Creativo,48,HG,6.234616,-75.57196,0,Posterior al Hospital General de Medellín,https://encicla.metropol.gov.co/imgstations/distrito_creativo.jpg,POINT (-75.57196044921875 6.234615802764893),medium,medium
103,Auxiliar Metro Envigado,36,ME,6.173281,-75.59659,0,"   Cabezote sur estación Envigado del Metro, costado oriental.",,POINT (-75.59658813476562 6.173281192779541),low,medium
104,Metro Envigado Sur,24,MS,6.1735263,-75.5971,0,"Cabezote sur estación Envigado del Metro, costado oriental.",,POINT (-75.59709930419922 6.173526287078857),medium,medium
105,Metro Envigado Norte,40,MN,6.1742783,-75.595795,0,"Cabezote norte estación Envigado del metro, costado oriental.",,POINT (-75.59579467773438 6.174278259277344),medium,medium
106,Puente fundadores,56,PF,6.172641,-75.59283,0,Esquina sur oriental,,POINT (-75.59282684326172 6.172640800476074),low,medium
107,La Ultima Estación,52,EST,6.1712275,-75.59411,0,Vía de servicio paralela a Las Vegas cerca a cll 39a sur ciclorruta,,POINT (-75.59410858154297 6.17122745513916),low,medium
108,Pista de patinaje,40,PT,6.169553,-75.59479,0,Acceso posterior a pista de patinaje Club PAEN,,POINT (-75.59478759765625 6.169552803039551),low,low
109,Villas de vallejuelos,36,VV,6.168561,-75.59289,0,Portería urbanización Villas del Vallejuelo,,POINT (-75.59288787841797 6.168560981750488),low,medium
110,Iglesia Alcalá,48,IA,6.1699796,-75.5933,0,Contigua a la cilorruta y a la iglesia Santa Cruz de Alcalá,,POINT (-75.59329986572266 6.169979572296143),medium,medium
111,Los urapanes,36,LU,6.173153,-75.59118,0,Costado occidental Parque los Urapanes,,POINT (-75.59117889404297 6.173152923583984),medium,medium
112,Parque Débora Arango,44,PQ,6.1716704,-75.59106,0,Costado sur occidental del Parque Débora Arango,,POINT (-75.59105682373047 6.171670436859131),low,medium
113,Porton de Alcalá,20,PA,6.1686625,-75.590866,0,Contiguo a urbanización Portón de Alcalá,,POINT (-75.59086608886719 6.168662548065186),medium,medium
114,El MUA,40,MUA,6.1705875,-75.58939,0,Diagonal a la I.E. Manuel Uribe Ángel,,POINT (-75.58939361572266 6.170587539672852),low,low
115,Viva envigado,56,LU,6.177153,-75.59021,0,Esquina nororiental del C.C. Viva Envigado,,POINT (-75.5902099609375 6.17715311050415),medium,medium
116,Guanteros,44,LU,6.1691155,-75.58843,0,Al frente de Personería de Envigado,,POINT (-75.58843231201172 6.169115543365479),low,low
118,Envigado centro,40,EC,6.170284,-75.58681,0,"Diagonal iglesia Santa Gertrudis, zona bancaria. ",,POINT (-75.58680725097656 6.170283794403076),medium,medium
121,Las Vegas 69 Sur,40,V69,6.154112,-75.61696,0,,,POINT (-75.61695861816406 6.154111862182617),low,low
122,Santa Ana,40,SA,6.1538987,-75.61513,0,"Diagonal iglesia Santa Gertrudis, zona bancaria. ",,POINT (-75.61512756347656 6.1538987159729),low,low
123,Calle Nueva,56,CN,6.148238,-75.620766,0,,,POINT (-75.62076568603516 6.148238182067871),low,low
124,La Barquereña,52,LB,6.150714,-75.61346,0,,,POINT (-75.61345672607422 6.150713920593262),low,medium
125,Entre amigos,40,EA,6.152328,-75.61823,0,,,POINT (-75.61823272705078 6.152328014373779),medium,medium
126,Sabaneta centro,40,SC,6.15086,-75.61643,0,,,POINT (-75.61643218994141 6.150859832763672),medium,medium
127,Aves María,40,AM,6.149742,-75.61793,0,"Diagonal iglesia Santa Gertrudis, zona bancaria. ",,POINT (-75.61792755126953 6.149742126464844),medium,medium
128,Biblioteca Sabaneta,40,BS,6.150029,-75.61918,0,,,POINT (-75.61917877197266 6.150029182434082),medium,medium
129,Puerta La 77 Sur,40,P77,6.152422,-75.62463,0,"Diagonal iglesia Santa Gertrudis, zona bancaria. ",,POINT (-75.6246337890625 6.152421951293945),low,low
130,Parque 4 Elementos,36,P4E,6.152474,-75.61273,0,,,POINT (-75.61273193359375 6.152473926544189),low,low
131,Metro Itaguí I,24,ITA1,6.1641717,-75.60629,0,,,POINT (-75.60629272460938 6.164171695709229),low,medium
132,Metro Itaguí II,44,ITA2,6.164182,-75.606186,0,,,POINT (-75.60618591308594 6.164182186126709),low,low
133,Bahía Ciclovia,32,AUT,6.168033,-75.606346,0,,,POINT (-75.60634613037109 6.168033123016357),low,low
134,Ideas,28,IDE,6.1695585,-75.60748,0,,,POINT (-75.60748291015625 6.169558525085449),low,low
135,Parque Itaguí,24,PITA,6.172641,-75.60931,0,,,POINT (-75.60930633544922 6.172640800476074),medium,medium
136,Metróplus Cami,40,PITA,6.1748595,-75.60942,0,,,POINT (-75.60942077636719 6.174859523773193),low,low
137,Doña María,40,PITA,6.1757717,-75.606026,0,,,POINT (-75.60602569580078 6.175771713256836),low,low
138,Los Naranjos,36,PITA,6.1719155,-75.60699,0,,,POINT (-75.60698699951172 6.171915531158447),low,low
139,Villa Paula,40,PITA,6.174198,-75.6069,0,,,POINT (-75.60690307617188 6.174198150634766),low,low
140,Parque el Artista,40,PITA,6.1789236,-75.60217,0,,,POINT (-75.6021728515625 6.178923606872559),low,medium
141,Puente pan de Queso I,52,PITA,6.175649,-75.59644,0,,,POINT (-75.59644317626953 6.175649166107178),low,low
142,Puente pan de Queso II,40,PITA,6.1754785,-75.59662,0,,,POINT (-75.59661865234375 6.175478458404541),low,low
